 1  2  3  4  5  6  7  8  9  10 11 12    []
    .     .     .     .     .     .
 1     2     3     4     5     6        [e]
       .           .           .        
 1           2           3              [e,e]
             .                    
 1                       2              [e, e, o]
 .                       
                         1              [e, e, o, e]

 1  2  3  4  5  6  7  8  9  10 11 12 13  []
    .     .     .     .     .     .     
 1     2     3     4     5     6     7  [o]
 .           .           .           . 
       1           2           3        [o,e]
                   .
       1                       2            
              
                         
                         
                         
   10101
                         
                         
  1   2   3   4   5   6   7   8   9  10  11  12  13  14  15  16  17  18  19  20  21  22  23  24  25  26 []
      .       .       .       .      .       .       .       .       .       .       .       .       .
  1       2       3       4       5       6       7       8       9      10      11      12      13     [e]
          .               .               .               .              .               .             
  1               2               3               4               5              6               7      [e,o]
  .                               .                               .                              . 
                  1                               2                              3                      [e,o,o]
                                                  .                                        
                  1                                                              2                      [e,o,o,o]
                  .                                                              
                                                                                 1                      [e,o,o,o,e]
 
                         
  26  25  24  23  22  21  20  19  18 17  16  15  14  13  12  11  10  9   8   7   6   5   4   3   2   1  []
      .       .       .       .      .       .       .       .       .       .       .       .       .
  13      12      11      10      9       8       7       6       5      4       3       2       1      [e]
          .               .               .               .              .               .             
  7               6               5               4               3              2               1      [e,o]
  .                               .                               .                              . 
                  3                               2                              1                      [e,o,o]
                                                  .                                        
                  2                                                              1                      [e,o,o,o]
                  .                                                              
                                                                                 1                      [e,o,o,o,e]


  1 2 3 4 5 6 7 8 9 10 11 12 13 14 15 16 17 18 19 20 21 []
    .   .   .   .   .     .     .     .     .     .     
  1   2   3   4   5    6     7     8     9     10    11 [o]
  .       .       .          .           .           .  
      1       2        3           4           5        [o,o]
              .                    .
      1                2                       3        [o,o,o]
      .                                        .
 
 
 1 2 3 4 5
   .   .  
 1   2   3 [o]
 .       .
 
 
 
 
 1 2 3 4 5 6 7 []
   .   .   .   
 1   2   3   4 [o]
 .       .     
     1       2 [o,e]
     .      
             1 [o,e,e]
     
 1 2 3 4 5 6 7 f
   .   .   .  
 1   2   3   4 f
 
 
 
 
